%YAML 1.1
%TAG !u! tag:unity3d.com,2011:
--- !u!1045 &1
EditorBuildSettings:
  m_ObjectHideFlags: 0
  serializedVersion: 2
  m_Scenes:
  - enabled: 1
    path: Assets/Scenes/Main.unity
    guid: b8358b59d536eea46af4861d39d3518d
  - enabled: 1
    path: Assets/Scenes/Empty.unity
    guid: 0c19ab0db52dc5246aaccf4af1d2f724
  - enabled: 1
    path: Assets/World/Activities/Events/Scenes/BattleEventScene.unity
    guid: 2d5518c5e17b4f24ea4f599c108c4e98
